mi-cd3/simulation/qsim/maquina_estado.msim.vcd
$comment
	File created using the following command:
		vcd file maquina_estado.msim.vcd -direction
$end
$date
	Sun Jul 07 21:36:09 2024
$end
$version
	ModelSim Version 2020.1
$end
$timescale
	1ps
$end

$scope module sistemaRega_vlg_vec_tst $end
$var reg 1 ! H $end
$var reg 1 " L $end
$var reg 1 # M $end
$var reg 1 $ T $end
$var reg 1 % Ua $end
$var reg 1 & Us $end
$var reg 1 ' clock $end
$var wire 1 ( Ag $end
$var wire 1 ) Al $end
$var wire 1 * Bs $end
$var wire 1 + E $end
$var wire 1 , Ve $end
$var wire 1 - Vs $end
$var wire 1 . column [4] $end
$var wire 1 / column [3] $end
$var wire 1 0 column [2] $end
$var wire 1 1 column [1] $end
$var wire 1 2 column [0] $end
$var wire 1 3 led $end
$var wire 1 4 lines [6] $end
$var wire 1 5 lines [5] $end
$var wire 1 6 lines [4] $end
$var wire 1 7 lines [3] $end
$var wire 1 8 lines [2] $end
$var wire 1 9 lines [1] $end
$var wire 1 : lines [0] $end
$var wire 1 ; segA $end
$var wire 1 < segB $end
$var wire 1 = segC $end
$var wire 1 > segD $end
$var wire 1 ? segE $end
$var wire 1 @ segF $end
$var wire 1 A segG $end
$var wire 1 B seven_seg_digit [3] $end
$var wire 1 C seven_seg_digit [2] $end
$var wire 1 D seven_seg_digit [1] $end
$var wire 1 E seven_seg_digit [0] $end
$var wire 1 F working $end

$scope module i1 $end
$var wire 1 G gnd $end
$var wire 1 H vcc $end
$var wire 1 I unknown $end
$var tri1 1 J devclrn $end
$var tri1 1 K devpor $end
$var tri1 1 L devoe $end
$var wire 1 M T~combout $end
$var wire 1 N Ua~combout $end
$var wire 1 O Us~combout $end
$var wire 1 P H~combout $end
$var wire 1 Q L~combout $end
$var wire 1 R M~combout $end
$var wire 1 S combinational|And9~0_combout $end
$var wire 1 T combinational|And9~1_combout $end
$var wire 1 U combinational|And12~0_combout $end
$var wire 1 V combinational|And12~1_combout $end
$var wire 1 W combinational|Or1~0_combout $end
$var wire 1 X combinational|Or2~0_combout $end
$var wire 1 Y combinational|Or0~0_combout $end
$var wire 1 Z clock~combout $end
$var wire 1 [ mef|next_state~0_combout $end
$var wire 1 \ mef|state.ERROR~regout $end
$var wire 1 ] mef|Selector1~0_combout $end
$var wire 1 ^ mef|state.DRIP~regout $end
$var wire 1 _ mef|Selector4~0_combout $end
$var wire 1 ` mef|state.CLEANING~regout $end
$var wire 1 a mef|Selector0~0_combout $end
$var wire 1 b mef|state.FILLING~regout $end
$var wire 1 c mef|state.FULL_BOX~regout $end
$var wire 1 d mef|state.SPRINKLER~regout $end
$upscope $end
$upscope $end
$enddefinitions $end
#0
$dumpvars
0!
1"
1#
0$
1%
1&
0'
x(
x)
x*
x+
x,
x-
02
01
00
0/
0.
x3
0:
09
08
07
06
05
04
0;
0<
0=
0>
0?
0@
0A
0E
0D
0C
0B
xF
0G
1H
xI
1J
1K
1L
xM
xN
xO
xP
xQ
xR
xS
xT
xU
xV
xW
xX
xY
xZ
x[
0\
x]
0^
x_
0`
xa
0b
0c
0d
$end
#1132
0M
1N
1O
0P
1Q
1R
#1147
0a
#1150
0]
#1163
0Z
#1486
0_
#4202
03
0(
#4797
0Y
#5000
1'
#5377
0S
#5477
0T
#5733
0U
#5737
0X
#5906
1[
#5922
1W
#6163
1Z
#6665
0V
#8405
0*
#8664
0)
#8724
1\
1b
#9871
1a
#10000
0#
1!
0'
#10053
1,
#10188
0+
1F
#10929
0-
#11132
1P
0R
#11163
0Z
#15000
1'
#15169
0a
#15358
1Y
#15733
1U
#15737
1X
#16109
0W
#16163
1Z
#18664
1)
#18724
0b
1c
#19874
1]
#20000
0'
#20240
0,
#20749
1+
0F
#21163
0Z
#21676
0\
0c
#22826
0]
#25000
1'
#26163
1Z
#30000
0%
0&
1#
0!
0'
#31132
0P
1R
0O
0N
#31163
0Z
#34797
0Y
#35000
1'
#35733
0U
#35737
0X
#36107
1S
#36109
1W
#36163
1Z
#37395
1T
#38664
0)
#40000
1%
0'
#40188
0+
1F
#40240
1,
#40323
1*
#41132
1N
#41163
0Z
#44743
1V
#45000
1'
#45281
0T
#46163
1Z
#48209
0*
#48724
1\
1b
#49007
1-
#49871
1a
#50000
1$
1&
0#
0%
0'
#51132
0N
0R
1O
1M
#51163
0Z
#54743
0V
#55000
1'
#55281
1T
#55377
0S
#55733
1U
#55737
1X
#56163
1Z
#56665
0T
#58664
1)
#59007
0-
#60000
0$
0'
#61132
0M
#61163
0Z
#65000
1'
#66163
1Z
#70000
1!
1$
0'
#71132
1M
1P
#71163
0Z
#75000
1'
#75169
0a
#75358
1Y
#76109
0W
#76163
1Z
#78724
0b
1c
#79874
1]
#80000
0&
1%
0!
0'
#80240
0,
#80749
1+
0F
#81132
0P
1N
0O
#81163
0Z
#81676
0\
0c
#82826
0]
#85000
1'
#85358
0Y
#86107
1S
#86109
1W
#86163
1Z
#87395
1V
#90000
1#
0$
0%
1!
0'
#90240
1,
#90749
0+
1F
#91132
1P
0N
0M
1R
#91163
0Z
#91659
1-
#94743
0V
#95000
1'
#95281
1T
#95733
0U
#95737
0X
#96109
0W
#96163
1Z
#98209
1*
#98664
0)
#98724
1\
1b
#99007
0-
#100000
1$
0!
0'
#100240
0,
#101132
0P
1M
#101163
0Z
#105000
1'
#105169
1a
#106109
1W
#106163
1Z
#110000
1&
0$
0'
#110240
1,
#111132
0M
1O
#111163
0Z
#115000
1'
#115377
0S
#116163
1Z
#116665
0T
#119593
0*
#120000
0#
1%
0&
1$
0'
#121132
1M
0O
1N
0R
#121163
0Z
#125000
1'
#125377
1S
#125733
1U
#125737
1X
#126163
1Z
#127181
1V
#128664
1)
#130000
1!
1#
0%
0$
0'
#131132
0M
0N
1R
1P
#131163
0Z
#131445
1-
#134743
0V
#135000
1'
#135169
0a
#135281
1T
#135733
0U
#135737
0X
#136109
0W
#136163
1Z
#138209
1*
#138664
0)
#138724
0b
1c
#139007
0-
#140000
1&
0'
#140240
0,
#141132
1O
#141163
0Z
#145000
1'
#145377
0S
#146163
1Z
#146665
0T
#148724
0c
1d
#149279
1]
#149593
0*
#149874
0]
#149881
1_
#150000
0#
0&
0'
#151132
0O
0R
#151163
0Z
#152926
13
1(
#154797
1Y
#155000
1'
#155377
1S
#155728
0S
#155733
1U
#155737
1X
#156163
1Z
#156251
0_
#158664
1)
#158724
0d
#160000
0!
1%
1&
0'
#160188
1+
0F
#161115
0\
#161132
1O
1N
0P
#161163
0Z
#162926
03
0(
#165000
1'
#165358
0Y
#166109
1W
#166163
1Z
#170000
1#
0'
#170240
1,
#170749
0+
1F
#171132
1R
#171163
0Z
#175000
1'
#175733
0U
#175737
0X
#176163
1Z
#178664
0)
#178724
1\
1b
#179871
1a
#180000
1!
0%
0#
0'
#181132
0R
0N
1P
#181163
0Z
#185000
1'
#185169
0a
#185358
1Y
#185733
1U
#185737
1X
#186109
0W
#186163
1Z
#188664
1)
#188724
0b
1c
#189874
1]
#190000
1%
0'
#190240
0,
#190749
1+
0F
#191132
1N
#191163
0Z
#191676
0\
0c
#192826
0]
#195000
1'
#196163
1Z
#200000
0&
0!
1#
0%
0'
#201132
0N
1R
0P
0O
#201163
0Z
#204797
0Y
#205000
1'
#205733
0U
#205737
0X
#206107
1S
#206109
1W
#206163
1Z
#207395
1T
#208664
0)
#210000
1$
0'
#210188
0+
1F
#210240
1,
#210323
1*
#211132
1M
#211163
0Z
#215000
1'
#216163
1Z
#218724
1\
1b
#219871
1a
#220000
1&
1%
0'
#221132
1N
1O
#221163
0Z
#225000
1'
#225377
0S
#226163
1Z
#226665
0T
#229593
0*
#230000
0$
0&
0'
#231132
0O
0M
#231163
0Z
#235000
1'
#235377
1S
#236163
1Z
#236665
1V
#240000
0#
1$
0'
#240929
1-
#241132
1M
0R
#241163
0Z
#245000
1'
#245477
1T
#245479
0V
#245731
0T
#245733
1U
#245737
1X
#246163
1Z
#247181
1V
#248664
1)
#250000
1&
0'
#251132
1O
#251163
0Z
#255000
1'
#255377
0S
#256163
1Z
#256665
0V
#260000
1!
1#
0$
0&
0'
#260929
0-
#261132
0O
0M
1R
1P
#261163
0Z
#265000
1'
#265169
0a
#265728
1S
#265733
0U
#265737
0X
#266109
0W
#266163
1Z
#267016
1V
#268664
0)
#268724
0b
1c
#269874
1]
#270000
0%
0#
1&
0'
#270240
0,
#271132
1O
0R
0N
#271163
0Z
#271280
1-
#274743
0V
#274797
1Y
#275000
1'
#275281
1T
#275377
0S
#275733
1U
#275737
1X
#276163
1Z
#276665
0T
#278664
1)
#279007
0-
#280000
0!
1%
1#
0'
#280188
1+
0F
#281115
0\
0c
#281132
1R
1N
0P
#281163
0Z
#282265
0]
#284797
0Y
#285000
1'
#285733
0U
#285737
0X
#286109
1W
#286163
1Z
#288664
0)
#290000
1$
0&
0%
0#
0'
#290188
0+
1F
#290240
1,
#291132
0R
0N
0O
1M
#291163
0Z
#295000
1'
#295377
1S
#295733
1U
#295737
1X
#296163
1Z
#296665
1T
#298664
1)
#298724
1\
1b
#299593
1*
#299871
1a
#300000
0$
1&
1%
0'
#301132
1N
1O
0M
#301163
0Z
#304743
1V
#305000
1'
#305281
0T
#305377
0S
#306163
1Z
#306665
0V
#308209
0*
#310000
1$
0'
#311132
1M
#311163
0Z
#315000
1'
#316163
1Z
#320000
1!
1#
0%
0$
0'
#321132
0M
0N
1R
1P
#321163
0Z
#325000
1'
#325169
0a
#325733
0U
#325737
0X
#326109
0W
#326163
1Z
#328664
0)
#328724
0b
1c
#329874
1]
#330000
0#
1$
0'
#330240
0,
#331132
1M
0R
#331163
0Z
#334797
1Y
#335000
1'
#335733
1U
#335737
1X
#336163
1Z
#338664
1)
#340000
1#
0$
0'
#340188
1+
0F
#341115
0\
0c
#341132
0M
1R
#341163
0Z
#342265
0]
#344797
0Y
#345000
1'
#345733
0U
#345737
0X
#346163
1Z
#348664
0)
#350000
0!
1%
0#
0'
#350188
0+
1F
#351132
0R
1N
0P
#351163
0Z
#355000
1'
#355733
1U
#355737
1X
#356109
1W
#356163
1Z
#358664
1)
#358724
1\
1b
#359871
1a
#360000
0&
1!
0'
#360240
1,
#361132
1P
0O
#361163
0Z
#365000
1'
#365169
0a
#365358
1Y
#366109
0W
#366163
1Z
#368724
0b
1c
#369874
1]
#370000
1#
1&
0!
0'
#370240
0,
#370749
1+
0F
#371132
0P
1O
1R
#371163
0Z
#371676
0\
0c
#372826
0]
#374797
0Y
#375000
1'
#375733
0U
#375737
0X
#376109
1W
#376163
1Z
#378664
0)
#380000
0%
0&
1!
0'
#380188
0+
1F
#380240
1,
#381132
1P
0O
0N
#381163
0Z
#385000
1'
#385377
1S
#386109
0W
#386163
1Z
#386665
1T
#388724
1\
1b
#389593
1*
#390000
1$
1%
1&
0'
#390240
0,
#391132
1O
1N
1M
#391163
0Z
#395000
1'
#395377
0S
#396163
1Z
#396665
0T
#398724
0b
1c
#399593
0*
#399874
1]
#400000
0$
0%
0&
0'
#401132
0O
0N
0M
#401163
0Z
#405000
1'
#405377
1S
#406163
1Z
#406665
1T
#409279
0]
#409593
1*
#410000
0#
1%
1&
0'
#411132
1O
1N
0R
#411163
0Z
#414743
1V
#414797
1Y
#415000
1'
#415281
0T
#415377
0S
#415733
1U
#415737
1X
#416163
1Z
#416665
0V
#417895
1]
#418209
0*
#418664
1)
#418724
0c
#419874
0]
#420000
0!
1$
1#
0%
0&
0'
#420188
1+
0F
#421115
0\
#421132
0O
0N
1R
1M
0P
#421163
0Z
#424797
0Y
#425000
1'
#425733
0U
#425737
0X
#426107
1S
#426109
1W
#426163
1Z
#427395
1T
#428664
0)
#430000
0'
#430188
0+
1F
#430240
1,
#430323
1*
#431163
0Z
#435000
1'
#436163
1Z
#438724
1\
1b
#439871
1a
#440000
1!
0#
1%
1&
0'
#441132
1O
1N
0R
1P
#441163
0Z
#445000
1'
#445169
0a
#445358
1Y
#445377
0S
#445731
0T
#445733
1U
#445737
1X
#446109
0W
#446163
1Z
#448659
0*
#448664
1)
#448724
0b
1c
#449874
1]
#450000
0!
0%
0&
0'
#450240
0,
#450749
1+
0F
#451132
0O
0N
0P
#451163
0Z
#451676
0\
0c
#452826
0]
#455000
1'
#455358
0Y
#456107
1S
#456109
1W
#456163
1Z
#457395
1T
#460000
1#
1!
1&
0'
#460240
1,
#460323
1*
#460749
0+
1F
#461132
1O
1P
1R
#461163
0Z
#465000
1'
#465377
0S
#465733
0U
#465737
0X
#466109
0W
#466163
1Z
#466665
0T
#468664
0)
#468724
1\
1b
#469593
0*
#470000
1%
0!
0&
0'
#470240
0,
#471132
0O
0P
1N
#471163
0Z
#475000
1'
#475169
1a
#475377
1S
#476109
1W
#476163
1Z
#476665
1T
#479593
1*
#480000
0%
0'
#480240
1,
#481132
0N
#481163
0Z
#485000
1'
#486163
1Z
#490000
0#
1&
0'
#491132
1O
0R
#491163
0Z
#495000
1'
#495377
0S
#495733
1U
#495737
1X
#496163
1Z
#496665
0T
#498664
1)
#499593
0*
#500000
0$
1!
1%
1#
0'
#501132
1R
1N
1P
0M
#501163
0Z
#505000
1'
#505169
0a
#505733
0U
#505737
0X
#506109
0W
#506163
1Z
#508664
0)
#508724
0b
1c
#509874
1]
#510000
0#
0'
#510240
0,
#511132
0R
#511163
0Z
#514797
1Y
#515000
1'
#515733
1U
#515737
1X
#516163
1Z
#518664
1)
#520000
1$
0!
0%
0'
#520188
1+
0F
#521115
0\
0c
#521132
0N
0P
1M
#521163
0Z
#522265
0]
#525000
1'
#525358
0Y
#526109
1W
#526163
1Z
#530000
0'
#530240
1,
#530749
0+
1F
#531163
0Z
#535000
1'
#536163
1Z
#538724
1\
1b
#539871
1a
#540000
0&
1#
0$
1!
0'
#541132
1P
0M
1R
0O
#541163
0Z
#545000
1'
#545169
0a
#545728
1S
#545733
0U
#545737
0X
#546109
0W
#546163
1Z
#547016
1T
#548664
0)
#548724
0b
1c
#549944
1*
#550000
1$
0'
#550240
0,
#551132
1M
#551163
0Z
#555000
1'
#556163
1Z
#558724
0c
1d
#559881
1_
#560000
1%
0'
#561132
1N
#561163
0Z
#562926
13
1(
#565000
1'
#566163
1Z
#568724
1`
0d
#569881
0_
#570000
1&
0#
0$
0%
0'
#571132
0N
0M
0R
1O
#571163
0Z
#572926
03
0(
#574797
1Y
#575000
1'
#575377
0S
#575733
1U
#575737
1X
#576163
1Z
#576665
0T
#578664
1)
#579593
0*
#580000
0&
1#
1$
0'
#580188
1+
0F
#581115
0\
0`
#581132
1M
1R
0O
#581163
0Z
#584797
0Y
#585000
1'
#585728
1S
#585733
0U
#585737
0X
#586163
1Z
#587016
1T
#588664
0)
#589944
1*
#590000
0!
1%
0#
0'
#590188
0+
1F
#591132
0R
1N
0P
#591163
0Z
#595000
1'
#595731
0T
#595733
1U
#595737
1X
#596109
1W
#596163
1Z
#597181
1V
#598659
0*
#598664
1)
#598724
1\
1b
#599871
1a
#600000
1&
0$
1#
0'
#600240
1,
#601132
1R
0M
1O
#601163
0Z
#601445
1-
#605000
1'
#605377
0S
#605733
0U
#605737
0X
#606163
1Z
#606665
0V
#608664
0)
#610000
1!
0%
0&
1$
0'
#610929
0-
#611132
1M
0O
0N
1P
#611163
0Z
#615000
1'
#615169
0a
#615377
1S
#616109
0W
#616163
1Z
#616665
1T
#618724
0b
1c
#619593
1*
#620000
1%
0$
0'
#620240
0,
#621132
0M
1N
#621163
0Z
#625000
1'
#625477
0T
#625479
1V
#626163
1Z
#628091
1]
#628405
0*
#628724
0c
xd
#629743
1-
#629874
0]
#629881
x_
#630000
0#
0'
#631132
0R
#631163
0Z
#632926
x3
x(
#634797
1Y
#635000
1'
#635728
0S
#635733
1U
#635737
1X
#636163
1Z
#636251
0_
#637016
0V
#638664
1)
#638724
0d
#640000
0!
1&
1#
0'
#640188
1+
0F
#641115
0\
#641132
1R
1O
0P
#641163
0Z
#641280
0-
#642926
03
0(
#644797
0Y
#645000
1'
#645733
0U
#645737
0X
#646109
1W
#646163
1Z
#648664
0)
#650000
1!
0'
#650188
0+
1F
#650240
1,
#651132
1P
#651163
0Z
#655000
1'
#656109
0W
#656163
1Z
#658724
1\
1b
#660000
0%
0'
#660240
0,
#661132
0N
#661163
0Z
#665000
1'
#666163
1Z
#668724
0b
1c
#669874
1]
#670000
1$
0#
0!
1%
0'
#671132
1N
0P
0R
1M
#671163
0Z
#675000
1'
#675733
1U
#675737
1X
#676109
1W
#676163
1Z
#678664
1)
#680000
0$
1#
1!
0'
#680240
1,
#681132
1P
1R
0M
#681163
0Z
#685000
1'
#685733
0U
#685737
0X
#686109
0W
#686163
1Z
#688664
0)
#690000
0%
0'
#690240
0,
#691132
0N
#691163
0Z
#695000
1'
#696163
1Z
#700000
0&
0#
1%
0'
#701132
1N
0R
0O
#701163
0Z
#704797
1Y
#705000
1'
#705377
1S
#705728
0S
#705733
1U
#705737
1X
#706163
1Z
#708664
1)
#710000
1$
1&
1#
0%
0'
#710188
1+
0F
#711115
0\
0c
#711132
0N
1R
1O
1M
#711163
0Z
#712265
0]
#714797
0Y
#715000
1'
#715733
0U
#715737
0X
#716163
1Z
#718664
0)
#720000
0!
0&
1%
0'
#720188
0+
1F
#721132
1N
0O
0P
#721163
0Z
#725000
1'
#725377
1S
#726109
1W
#726163
1Z
#726665
1T
#728724
1\
1b
#729593
1*
#729871
1a
#730000
0#
0%
0'
#730240
1,
#731132
0N
0R
#731163
0Z
#735000
1'
#735733
1U
#735737
1X
#736163
1Z
#738664
1)
#740000
0$
1!
1&
0'
#741132
1O
1P
0M
#741163
0Z
#745000
1'
#745169
0a
#745358
1Y
#745377
0S
#746109
0W
#746163
1Z
#746665
0T
#748724
0b
1c
#749593
0*
#749874
1]
#750000
1#
1$
0'
#750240
0,
#750749
1+
0F
#751132
1M
1R
#751163
0Z
#751676
0\
0c
#752826
0]
#754797
0Y
#755000
1'
#755733
0U
#755737
0X
#756163
1Z
#758664
0)
#760000
1%
0!
0&
0$
0'
#760188
0+
1F
#761132
0M
0O
0P
1N
#761163
0Z
#765000
1'
#765377
1S
#766109
1W
#766163
1Z
#766665
1V
#768724
1\
1b
#769871
1a
#770000
0%
1!
1&
0'
#770240
1,
#770929
1-
#771132
1O
1P
0N
#771163
0Z
#774743
0V
#775000
1'
#775169
0a
#775281
1T
#775377
0S
#776109
0W
#776163
1Z
#776665
0T
#778724
0b
1c
#779007
0-
#779874
1]
#780000
1$
1%
0'
#780240
0,
#781132
1N
1M
#781163
0Z
#785000
1'
#786163
1Z
#790000
0&
0%
0'
#791132
0N
0O
#791163
0Z
#795000
1'
#795377
1S
#796163
1Z
#796665
1T
#799279
0]
#799593
1*
#800000
0$
1&
1%
0'
#801132
1N
1O
0M
#801163
0Z
#805000
1'
#805377
0S
#805477
0T
#805479
1V
#806163
1Z
#806665
0V
#808091
1]
#808405
0*
#808724
0c
xd
#809874
0]
#809881
x_
#810000
0!
0&
0'
#811132
0O
0P
#811163
0Z
#812926
x3
x(
#815000
1'
#815377
1S
#816109
1W
#816163
1Z
#816665
1V
#818724
x`
0d
#819881
0_
#820000
0#
1$
0'
#820240
1,
#820929
1-
#821132
1M
0R
#821163
0Z
#822926
03
0(
#825000
1'
#825477
1T
#825479
0V
#825731
0T
#825733
1U
#825737
1X
#826163
1Z
#827181
1V
#828664
1)
#828724
0`
xb
#829871
xa
#830000
1#
0$
0'
#831132
0M
1R
#831163
0Z
#835000
1'
#835733
0U
#835737
0X
#836163
1Z
#838664
0)
#840000
1$
0'
#841132
1M
#841163
0Z
#845000
1'
#845477
1T
#845479
0V
#846163
1Z
#848405
1*
#849743
0-
#850000
0%
1&
0#
0'
#851132
0R
1O
0N
#851163
0Z
#855000
1'
#855377
0S
#855733
1U
#855737
1X
#856163
1Z
#856665
0T
#858664
1)
#859593
0*
#860000
1!
0$
1%
0&
1#
0'
#861132
1R
0O
1N
0M
1P
#861163
0Z
#865000
1'
#865169
0a
#865728
1S
#865733
0U
#865737
0X
#866109
0W
#866163
1Z
#867016
1V
#868664
0)
#868724
0b
xc
#869874
x]
#870000
0!
1$
0%
0#
0'
#870240
0,
#871132
0R
0N
1M
0P
#871163
0Z
#871280
1-
#874743
0V
#875000
1'
#875281
1T
#875733
1U
#875737
1X
#876109
1W
#876163
1Z
#877895
0]
#878209
1*
#878664
1)
#878724
xd
#879007
0-
#879881
x_
#880000
1&
1!
0$
0'
#880240
1,
#881132
0M
1P
1O
#881163
0Z
#882926
x3
x(
#885000
1'
#885358
1Y
#885377
0S
#886109
0W
#886163
1Z
#886665
0T
#886812
0_
#888724
0c
#889279
x]
#889593
0*
#889874
0]
#890000
1#
0!
0'
#890240
0,
#890749
1+
0F
#891132
0P
1R
#891163
0Z
#891676
0\
0d
#894797
0Y
#895000
1'
#895733
0U
#895737
0X
#895878
03
0(
#896109
1W
#896163
1Z
#898664
0)
#900000
1%
0&
1$
1!
0'
#900188
0+
1F
#900240
1,
#901132
1P
1M
0O
1N
#901163
0Z
#905000
1'
#905377
1S
#906109
0W
#906163
1Z
#906665
1T
#908724
1\
1b
#909593
1*
#910000
0%
0$
0'
#910240
0,
#911132
0M
0N
#911163
0Z
#915000
1'
#916163
1Z
#918724
0b
1c
#920000
1$
0'
#921132
1M
#921163
0Z
#925000
1'
#926163
1Z
#928724
0c
1d
#929881
1_
#930000
0#
1%
0'
#931132
1N
0R
#931163
0Z
#932926
13
1(
#934797
1Y
#935000
1'
#935728
0S
#935731
0T
#935733
1U
#935737
1X
#936163
1Z
#936251
0_
#938659
0*
#938664
1)
#938724
0d
#940000
1#
0'
#940188
1+
0F
#941115
0\
#941132
1R
#941163
0Z
#942926
03
0(
#944797
0Y
#945000
1'
#945728
1S
#945733
0U
#945737
0X
#946163
1Z
#947016
1T
#948664
0)
#949944
1*
#950000
1&
0%
0#
0'
#950188
0+
1F
#951132
0R
0N
1O
#951163
0Z
#954797
1Y
#955000
1'
#955377
0S
#955733
1U
#955737
1X
#956163
1Z
#956665
0T
#958664
1)
#958724
1\
1b
#959593
0*
#960000
0!
0'
#960188
1+
0F
#961115
0\
0b
#961132
0P
#961163
0Z
#965000
1'
#965358
0Y
#966109
1W
#966163
1Z
#970000
0$
0&
1#
0'
#970240
1,
#970749
0+
1F
#971132
1R
0O
0M
#971163
0Z
#975000
1'
#975377
1S
#975733
0U
#975737
0X
#976163
1Z
#976665
1T
#978664
0)
#978724
1\
1b
#979593
1*
#979871
1a
#980000
1%
1$
0#
0'
#981132
0R
1M
1N
#981163
0Z
#985000
1'
#985731
0T
#985733
1U
#985737
1X
#986163
1Z
#987181
1V
#988659
0*
#988664
1)
#990000
1!
1&
0%
0$
0'
#991132
0M
0N
1O
1P
#991163
0Z
#991445
1-
#994743
0V
#995000
1'
#995169
0a
#995281
1T
#995358
1Y
#995377
0S
#996109
0W
#996163
1Z
#996665
0T
#998724
0b
1c
#999007
0-
#999874
1]
